{
    "KPlugin": {
        "Description": "Message Composer Settings",
        "Description[ar]": "إعدادات مؤلّف الرّسائل",
        "Description[az]": "Məktub redaktoru ayarları",
        "Description[bg]": "Настройки на съставяне на съобщения",
        "Description[ca@valencia]": "Configuració de l'editor de missatges",
        "Description[ca]": "Configuració de l'editor de missatges",
        "Description[cs]": "Nastavení editoru zpráv",
        "Description[de]": "Einstellungen für den E-Mail-Editor",
        "Description[en_GB]": "Message Composer Settings",
        "Description[es]": "Preferencias del editor de mensajes",
        "Description[eu]": "Mezu-konposatzailearen ezarpenak",
        "Description[fi]": "Viestimuokkaimen asetukset",
        "Description[fr]": "Configuration de l'éditeur de messages",
        "Description[ia]": "Preferentias de compositor de messages",
        "Description[id]": "Pengaturan Pencipta Pesan",
        "Description[it]": "Impostazioni compositore messaggi",
        "Description[ka]": "შეტყობინების შემდგენლის პარამეტრები",
        "Description[ko]": "메시지 작성기 설정",
        "Description[nl]": "Berichtenopsteller-instellingen",
        "Description[pl]": "Ustawienia kompozytora wiadomości",
        "Description[pt]": "Configuração do Compositor de Mensagens",
        "Description[pt_BR]": "Configurações do compositor de mensagens",
        "Description[ru]": "Настройка редактора писем",
        "Description[sl]": "Nastavitve sestavljalnika sporočil",
        "Description[sv]": "Inställningar av brevfönster",
        "Description[ta]": "அஞ்சலெழுதும் இடத்திற்கான அமைப்புகள்",
        "Description[tr]": "İleti Oluşturucu Ayarları",
        "Description[uk]": "Параметри засобу створення повідомлень",
        "Description[x-test]": "xxMessage Composer Settingsxx",
        "Description[zh_CN]": "信件撰写器设置",
        "Icon": "accessories-text-editor",
        "Name": "Composer",
        "Name[af]": "Composer",
        "Name[ar]": "المؤلّف",
        "Name[az]": "Redaktor",
        "Name[bg]": "Редактор",
        "Name[br]": "Skridaozer",
        "Name[bs]": "Composer",
        "Name[ca@valencia]": "Editor",
        "Name[ca]": "Editor",
        "Name[cs]": "Editor",
        "Name[cy]": "Cyfansoddydd",
        "Name[da]": "Brevskriver",
        "Name[de]": "E-Mail-Editor",
        "Name[el]": "Σύνταξη μηνυμάτων",
        "Name[en_GB]": "Composer",
        "Name[es]": "Editor",
        "Name[et]": "Koostaja",
        "Name[eu]": "Editorea",
        "Name[fa]": "مؤلف",
        "Name[fi]": "Kirjoittaminen",
        "Name[fr]": "Éditeur",
        "Name[fy]": "Opsteller",
        "Name[ga]": "Cumadóir",
        "Name[gl]": "Compositor",
        "Name[he]": "עורך",
        "Name[hu]": "Szerkesztő",
        "Name[ia]": "Compositor",
        "Name[id]": "Pencipta",
        "Name[is]": "Composer",
        "Name[it]": "Compositore",
        "Name[ja]": "メール作成",
        "Name[ka]": "კომპოზიტორი",
        "Name[kk]": "Құрастарғыш",
        "Name[km]": "កម្មវិធី​តែង",
        "Name[ko]": "작성기",
        "Name[lt]": "Redaktorius",
        "Name[lv]": "Ziņu rakstītājs",
        "Name[mk]": "Составувач",
        "Name[mr]": "संपादक",
        "Name[ms]": "Penggubah",
        "Name[nb]": "Komposer",
        "Name[nds]": "Nettbreef-Editor",
        "Name[ne]": "कम्पोजर",
        "Name[nl]": "Opsteller",
        "Name[nn]": "Skrivevindauge",
        "Name[pa]": "ਕੰਪੋਜ਼ਰ",
        "Name[pl]": "Edytor",
        "Name[pt]": "Compositor",
        "Name[pt_BR]": "Compositor",
        "Name[ro]": "Compozitor",
        "Name[ru]": "Редактор писем",
        "Name[se]": "Čállinprográmma",
        "Name[sk]": "Editor správ",
        "Name[sl]": "Sestavljalnik",
        "Name[sr@ijekavian]": "Састављач",
        "Name[sr@ijekavianlatin]": "Sastavljač",
        "Name[sr@latin]": "Sastavljač",
        "Name[sr]": "Састављач",
        "Name[sv]": "Brevfönster",
        "Name[ta]": "அஞ்சலெழுதும் இடம்",
        "Name[tg]": "Муҳаррири мактубҳо",
        "Name[th]": "เขียนจดหมาย",
        "Name[tr]": "Düzenleyici",
        "Name[ug]": "مۇزىكىسىنى ئىشلىگۈچى",
        "Name[uk]": "Редактор листів",
        "Name[wa]": "Finiesse po scrire",
        "Name[x-test]": "xxComposerxx",
        "Name[zh_CN]": "撰写器",
        "Name[zh_TW]": "編寫器",
        "ServiceTypes": [
            "KCModule"
        ]
    },
    "X-DocPath": "kmail2/index.html#configure-composer",
    "X-KDE-Weight": 400
}
